analiza wstepna
…
# widzimy, e dane podgrupy poszczeglnych gatunkw s wymieszane midzy sob. 

dane_podgrupy %>% 
  group_by(playlist_genre,playlist_subgenre) %>% 
  summarise(ilosc = n()) %>% 
  arrange(desc(ilosc))

## # A tibble: 24 x 3
## # Groups:   playlist_genre [6]
##    playlist_genre playlist_subgenre         ilosc
##    <chr>          <chr>                     <int>
##  1 edm            progressive electro house  1456
##  2 latin          latin hip hop              1355
##  3 pop            indie poptimism            1355
##  4 rap            southern hip hop           1339
##  5 r&b            neo soul                   1299
##  6 edm            electro house              1212
##  7 edm            pop edm                    1207
##  8 rock           hard rock                  1193
##  9 rap            gangster rap               1171
## 10 pop            electropop                 1125
## # ... with 14 more rows
…
